{
  "project_info": {
    "project_number": "731344659047",
    "project_id": "flutter-chat-app-97000",
    "storage_bucket": "flutter-chat-app-97000.appspot.com"
  },
  "client": [
    {
      "client_info": {
        "mobilesdk_app_id": "1:731344659047:android:8634d99ae9eb7b35636ac2",
        "android_client_info": {
          "package_name": "com.example.chat_app"
        }
      },
      "oauth_client": [],
      "api_key": [
        {
          "current_key": "AIzaSyCVkzLVLRgBcmwHEBXKCx-Jqjdagkt4XFA"
        }
      ],
      "services": {
        "appinvite_service": {
          "other_platform_oauth_client": []
        }
      }
    }
  ],
  "configuration_version": "1"
}